{
  "web": {
    "client_id": "00000000480F7E29",
    "client_secret": "uz4KptX63lG0YJRG-jITNWJz5-4hYp7a",
    "redirect_uri": "https://ipst-epub.appspot.com/oauth2callback",
    "scopes": "wl.emails",
    "user_info_url": "https://apis.live.net/v5.0/me"
  }
}